{
  "content": [
    {
      "prisonerNumber": "A1446DZ",
      "bookingId": "1205135",
      "firstName": "DONALD",
      "lastName": "BAHRINGER",
      "status": "ACTIVE OUT",
      "lastMovementTypeCode": "TAP",
      "inOutStatus": "OUT",
      "prisonId": "PVI",
      "cellLocation": "1-1-035",
      "alerts": [],
      "legalStatus": "SENTENCED",
      "restrictedPatient": false,
      "currentIncentive": {
        "level": {
          "code": "ENH",
          "description": "Enhanced"
        },
        "dateTime": "2023-02-23T08:05:27",
        "nextReviewDate": "2023-05-23"
      }
    },
    {
      "prisonerNumber": "A1718DZ",
      "bookingId": "1205450",
      "firstName": "TRACY",
      "lastName": "BERGSTROM",
      "status": "ACTIVE OUT",
      "lastMovementTypeCode": "TAP",
      "inOutStatus": "OUT",
      "prisonId": "PVI",
      "cellLocation": "1-2-014",
      "alerts": [],
      "legalStatus": "SENTENCED",
      "restrictedPatient": false,
      "currentIncentive": {
        "level": {
          "code": "ENH",
          "description": "Enhanced"
        },
        "dateTime": "2023-03-10T15:46:52",
        "nextReviewDate": "2023-06-10"
      }
    },
    {
      "prisonerNumber": "A5015DY",
      "bookingId": "1200650",
      "firstName": "ALFONSO",
      "lastName": "CHOLAK",
      "status": "ACTIVE IN",
      "lastMovementTypeCode": "ADM",
      "inOutStatus": "IN",
      "prisonId": "PVI",
      "cellLocation": "1-1-031",
      "alerts": [
        {
          "alertType": "X",
          "alertCode": "XER",
          "active": true,
          "expired": false
        },
        {
          "alertType": "X",
          "alertCode": "XEL",
          "active": true,
          "expired": false
        }
      ],
      "category": "D",
      "legalStatus": "SENTENCED",
      "releaseDate": "2018-11-20",
      "restrictedPatient": false,
      "currentIncentive": {
        "level": {
          "code": "STD",
          "description": "Standard"
        },
        "dateTime": "2018-08-21T16:31:59",
        "nextReviewDate": "2019-08-21"
      }
    },
    {
      "prisonerNumber": "A2226DZ",
      "bookingId": "1205963",
      "firstName": "MERCEDES",
      "lastName": "KOVACEK",
      "status": "ACTIVE OUT",
      "lastMovementTypeCode": "TAP",
      "inOutStatus": "OUT",
      "prisonId": "PVI",
      "cellLocation": "RECP",
      "alerts": [],
      "legalStatus": "SENTENCED",
      "restrictedPatient": false,
      "currentIncentive": {
        "level": {
          "code": "ENH",
          "description": "Enhanced"
        },
        "dateTime": "2023-03-17T12:11:45",
        "nextReviewDate": "2023-06-17"
      }
    },
    {
      "prisonerNumber": "A5089DY",
      "bookingId": "1200835",
      "firstName": "JAMIE",
      "lastName": "MARKE",
      "status": "ACTIVE IN",
      "lastMovementTypeCode": "ADM",
      "inOutStatus": "IN",
      "prisonId": "PVI",
      "cellLocation": "2-2-032",
      "alerts": [],
      "category": "P",
      "legalStatus": "RECALL",
      "recall": true,
      "restrictedPatient": false,
      "currentIncentive": {
        "level": {
          "code": "STD",
          "description": "Standard"
        },
        "dateTime": "2021-01-06T15:50:15",
        "nextReviewDate": "2022-01-06"
      }
    },
    {
      "prisonerNumber": "A3062DZ",
      "bookingId": "1206847",
      "firstName": "DOMINIC",
      "lastName": "MAYER",
      "status": "ACTIVE IN",
      "lastMovementTypeCode": "TAP",
      "inOutStatus": "IN",
      "prisonId": "PVI",
      "cellLocation": "RECP",
      "alerts": [],
      "legalStatus": "SENTENCED",
      "restrictedPatient": false,
      "currentIncentive": {
        "level": {
          "code": "STD",
          "description": "Standard"
        },
        "dateTime": "2023-04-17T18:00:50",
        "nextReviewDate": "2023-07-17"
      }
    },
    {
      "prisonerNumber": "A5120DY",
      "bookingId": "1200867",
      "firstName": "CALLUM",
      "lastName": "MCCABE",
      "status": "ACTIVE IN",
      "lastMovementTypeCode": "ADM",
      "inOutStatus": "IN",
      "prisonId": "PVI",
      "cellLocation": "1-2-018",
      "alerts": [],
      "category": "C",
      "legalStatus": "SENTENCED",
      "releaseDate": "2021-08-24",
      "restrictedPatient": false,
      "currentIncentive": {
        "level": {
          "code": "STD",
          "description": "Standard"
        },
        "dateTime": "2020-02-24T13:57:31",
        "nextReviewDate": "2021-02-24"
      }
    },
    {
      "prisonerNumber": "A5197DY",
      "bookingId": "1200999",
      "firstName": "PAUL",
      "lastName": "MCCARTNEY",
      "status": "ACTIVE IN",
      "lastMovementTypeCode": "ADM",
      "inOutStatus": "IN",
      "prisonId": "PVI",
      "cellLocation": "1-3-004",
      "alerts": [
        {
          "alertType": "X",
          "alertCode": "XTACT",
          "active": true,
          "expired": false
        },
        {
          "alertType": "R",
          "alertCode": "RLG",
          "active": true,
          "expired": false
        },
        {
          "alertType": "S",
          "alertCode": "SOR",
          "active": true,
          "expired": false
        }
      ],
      "legalStatus": "SENTENCED",
      "recall": false,
      "restrictedPatient": false,
      "currentIncentive": {
        "level": {
          "code": "STD",
          "description": "Standard"
        },
        "dateTime": "2020-08-17T15:51:07",
        "nextReviewDate": "2021-08-17"
      }
    },
    {
      "prisonerNumber": "A0233DZ",
      "bookingId": "1203929",
      "firstName": "YOUNGS",
      "lastName": "NEWTON",
      "status": "ACTIVE IN",
      "lastMovementTypeCode": "ADM",
      "inOutStatus": "IN",
      "prisonId": "PVI",
      "cellLocation": "5-2-A-035",
      "alerts": [],
      "legalStatus": "SENTENCED",
      "restrictedPatient": false,
      "currentIncentive": {
        "level": {
          "code": "STD",
          "description": "Standard"
        },
        "dateTime": "2022-12-16T17:19:32",
        "nextReviewDate": "2022-10-01"
      }
    },
    {
      "prisonerNumber": "A1348DZ",
      "bookingId": "1205034",
      "firstName": "SIMON",
      "middleNames": "BOB JAMES",
      "lastName": "OLDHAM",
      "status": "ACTIVE IN",
      "lastMovementTypeCode": "ADM",
      "inOutStatus": "IN",
      "prisonId": "PVI",
      "cellLocation": "1-3-004",
      "alerts": [],
      "legalStatus": "INDETERMINATE_SENTENCE",
      "restrictedPatient": false,
      "currentIncentive": {
        "level": {
          "code": "STD",
          "description": "Standard"
        },
        "dateTime": "2023-03-16T10:41:24",
        "nextReviewDate": "2024-03-16"
      }
    },
    {
      "prisonerNumber": "A5190DY",
      "bookingId": "1206360",
      "firstName": "CANOE",
      "lastName": "REEVES",
      "status": "ACTIVE IN",
      "lastMovementTypeCode": "ADM",
      "inOutStatus": "IN",
      "prisonId": "PVI",
      "cellLocation": "4-3-006",
      "alerts": [],
      "legalStatus": "REMAND",
      "restrictedPatient": false,
      "currentIncentive": {
        "level": {
          "code": "STD",
          "description": "Standard"
        },
        "dateTime": "2023-04-03T16:16:14",
        "nextReviewDate": "2021-06-24"
      }
    },
    {
      "prisonerNumber": "A0013DZ",
      "bookingId": "1203742",
      "firstName": "RODNEY",
      "lastName": "REINDEER",
      "status": "ACTIVE IN",
      "lastMovementTypeCode": "ADM",
      "inOutStatus": "IN",
      "prisonId": "PVI",
      "cellLocation": "4-2-009",
      "alerts": [],
      "legalStatus": "SENTENCED",
      "restrictedPatient": false,
      "currentIncentive": {
        "level": {
          "code": "BAS",
          "description": "Basic"
        },
        "dateTime": "2022-12-12T16:18:54",
        "nextReviewDate": "2023-01-12"
      }
    },
    {
      "prisonerNumber": "A2440DZ",
      "bookingId": "1206177",
      "firstName": "BRANDI",
      "lastName": "RENNER",
      "status": "ACTIVE OUT",
      "lastMovementTypeCode": "TAP",
      "inOutStatus": "OUT",
      "prisonId": "PVI",
      "cellLocation": "RECP",
      "alerts": [],
      "legalStatus": "SENTENCED",
      "restrictedPatient": false,
      "currentIncentive": {
        "level": {
          "code": "ENH",
          "description": "Enhanced"
        },
        "dateTime": "2023-03-27T11:01:46",
        "nextReviewDate": "2023-06-27"
      }
    },
    {
      "prisonerNumber": "A2081DZ",
      "bookingId": "1205820",
      "firstName": "MAMIE",
      "lastName": "SCHNEIDER",
      "status": "ACTIVE IN",
      "lastMovementTypeCode": "ADM",
      "inOutStatus": "IN",
      "prisonId": "PVI",
      "cellLocation": "RECP",
      "alerts": [],
      "legalStatus": "SENTENCED",
      "restrictedPatient": false,
      "currentIncentive": {
        "level": {
          "code": "ENH",
          "description": "Enhanced"
        },
        "dateTime": "2023-03-15T17:40:56",
        "nextReviewDate": "2023-06-15"
      }
    },
    {
      "prisonerNumber": "A5072DY",
      "bookingId": "1201586",
      "firstName": "FRED",
      "lastName": "SMITH",
      "status": "ACTIVE IN",
      "lastMovementTypeCode": "ADM",
      "inOutStatus": "IN",
      "prisonId": "PVI",
      "cellLocation": "3-3-025",
      "alerts": [
        {
          "alertType": "U",
          "alertCode": "UPIU",
          "active": true,
          "expired": false
        }
      ],
      "legalStatus": "RECALL",
      "receptionDate": "2021-11-03",
      "restrictedPatient": false,
      "currentIncentive": {
        "level": {
          "code": "STD",
          "description": "Standard"
        },
        "dateTime": "2022-05-12T11:58:24",
        "nextReviewDate": "2023-05-12"
      }
    },
    {
      "prisonerNumber": "A1990DZ",
      "bookingId": "1205730",
      "firstName": "OTIS",
      "lastName": "STOLTENBERG",
      "status": "ACTIVE IN",
      "lastMovementTypeCode": "ADM",
      "inOutStatus": "IN",
      "prisonId": "PVI",
      "cellLocation": "RECP",
      "alerts": [],
      "legalStatus": "SENTENCED",
      "restrictedPatient": false,
      "currentIncentive": {
        "level": {
          "code": "ENH",
          "description": "Enhanced"
        },
        "dateTime": "2023-03-14T16:56:55",
        "nextReviewDate": "2023-06-14"
      }
    },
    {
      "prisonerNumber": "A5165DY",
      "bookingId": "1200953",
      "firstName": "HARRY",
      "lastName": "STYLES",
      "status": "ACTIVE IN",
      "lastMovementTypeCode": "ADM",
      "inOutStatus": "IN",
      "prisonId": "PVI",
      "cellLocation": "1-3-004",
      "alerts": [],
      "legalStatus": "SENTENCED",
      "recall": false,
      "restrictedPatient": false,
      "currentIncentive": {
        "level": {
          "code": "STD",
          "description": "Standard"
        },
        "dateTime": "2020-06-09T09:55:55",
        "nextReviewDate": "2021-06-09"
      }
    },
    {
      "prisonerNumber": "A1053DZ",
      "bookingId": "1204720",
      "firstName": "MICHAEL",
      "lastName": "WILLIS",
      "status": "ACTIVE IN",
      "lastMovementTypeCode": "ADM",
      "inOutStatus": "IN",
      "prisonId": "PVI",
      "cellLocation": "RECP",
      "alerts": [],
      "legalStatus": "SENTENCED",
      "restrictedPatient": false,
      "currentIncentive": {
        "level": {
          "code": "ENH",
          "description": "Enhanced"
        },
        "dateTime": "2023-02-06T16:48:50",
        "nextReviewDate": "2023-05-06"
      }
    },
    {
      "prisonerNumber": "A0227DZ",
      "bookingId": "1203923",
      "firstName": "NEIL",
      "lastName": "YOUNG",
      "status": "ACTIVE IN",
      "lastMovementTypeCode": "ADM",
      "inOutStatus": "IN",
      "prisonId": "PVI",
      "cellLocation": "4-3-023",
      "alerts": [],
      "legalStatus": "SENTENCED",
      "restrictedPatient": false,
      "currentIncentive": {
        "level": {
          "code": "BAS",
          "description": "Basic"
        },
        "dateTime": "2022-12-16T11:16:02",
        "nextReviewDate": "2023-01-16"
      }
    },
    {
      "prisonerNumber": "A0228DZ",
      "bookingId": "1203924",
      "firstName": "NEIL",
      "lastName": "YOUNGISH",
      "status": "ACTIVE IN",
      "lastMovementTypeCode": "ADM",
      "inOutStatus": "IN",
      "prisonId": "PVI",
      "cellLocation": "5-2-B-050",
      "alerts": [],
      "legalStatus": "SENTENCED",
      "restrictedPatient": false,
      "currentIncentive": {
        "level": {
          "code": "STD",
          "description": "Standard"
        },
        "dateTime": "2022-12-16T11:18:56",
        "nextReviewDate": "2023-01-16"
      }
    }
  ],
  "pageable": {
    "sort": {
      "empty": true,
      "sorted": false,
      "unsorted": true
    },
    "offset": 0,
    "pageSize": 20,
    "pageNumber": 0,
    "paged": true,
    "unpaged": false
  },
  "totalElements": 975,
  "totalPages": 49,
  "last": false,
  "size": 20,
  "number": 0,
  "sort": {
    "empty": true,
    "sorted": false,
    "unsorted": true
  },
  "first": true,
  "numberOfElements": 20,
  "empty": false
}
